Idea,Idea Name,Idea Content,File,new content
Delete,60 Beach Ideas,,,
Delete,47 Flawless Back-to-School Outfit Ideas,,,
Delete,4 IDEAS FOR YOUR NEXT RAVE COSTUME,,,
Delete,A Few Pie-in-the-Sky Wearable Tech Ideas to Talk About at New York Fashion Week,,,
