Add Slide,Save w/ back to list?,Back button name,File Upload Name,Slide Name
no,no,Slideshow,codpaste-teaching#pack#.pdf,File1
yes,yes,Slideshow,"AlabamaHand,book,'RJ'.pdf",File2
yes,no,Slideshow,design-thin..king(RJ).pdf,File3
