App Locator Name,Oject Name,Name of Tool,Watermark Face tool,Confirmation Manage,Watermark Manage Face Tool
fab-module[title-search='Search Learning Space'] paper-fab[title='Search Learning Space'],,Untitled Learning Space,You have not added any learning spaces.,Not Hidden,
fab-module[title-search='Search Learning Space'] paper-fab[title='Search Learning Space'],,Untitled Learning Space,You have no nested learning spaces.,Hidden,
